{
	"format_version": "1.10.0",
	"minecraft:client_entity": {
		"description": {
			"identifier": "test:laser_large",
			"materials": {
				"default": "entity_alphatest"
			},
			"textures": {
				"default": "textures/entity/laser"
			},
			"geometry": {
				"default": "geometry.laser"
			},
			"sound_effects": {
				"laser_large": "test:laser.large"
			},
			"animations": {
				"large":"animation.laser.large"
			},
			"scripts": {
				"animate": [
					"large"
				]
			},
			"render_controllers": [
				"controller.render.laser"
			]
		}
	}
}