{
	"format_version": "1.10.0",
	"render_controllers": {
		"controller.render.laser": {
			"geometry": "geometry.default",
			"materials": [
				{
					"*": "material.default"
				}
			],
			"textures": ["texture.default"]
		}
	}
}